…
The ```sumarise()``` function was used to obtain the total steps per day (with the ```sum()``` function), the mean and the median steps per day. The ```date_factor``` variable was a used as a grouping variable.


```r
steps_by_day <- summarise(activity_w_dates, step_number = sum(steps),
                          steps_mean = mean(steps), steps_median = median(steps))
print(steps_by_day)
```

```
## # A tibble: 53 x 4
##    date_factor step_number steps_mean steps_median
##         <fctr>       <dbl>      <dbl>        <dbl>
##  1  2012-10-02         126    0.43750            0
##  2  2012-10-03       11352   39.41667            0
##  3  2012-10-04       12116   42.06944            0
##  4  2012-10-05       13294   46.15972            0
##  5  2012-10-06       15420   53.54167            0
##  6  2012-10-07       11015   38.24653            0
##  7  2012-10-09       12811   44.48264            0
##  8  2012-10-10        9900   34.37500            0
##  9  2012-10-11       10304   35.77778            0
## 10  2012-10-12       17382   60.35417            0
## # ... with 43 more rows
```
…
### Average daily activity pattern (*Second task*)

For this section of the analysis, the `activity_wo_na` ```tible``` (previously created) was used. To analyze the daily activity pattern, `interval` was used as grouping variable. 


```r
activity_w_intervals <- group_by(activity_wo_na, interval)

print(activity_w_intervals)
```

```
## # A tibble: 15,264 x 3
## # Groups:   interval [288]
##    steps       date interval
##    <dbl>     <date>   <fctr>
##  1     0 2012-10-02        0
##  2     0 2012-10-02        5
##  3     0 2012-10-02       10
##  4     0 2012-10-02       15
##  5     0 2012-10-02       20
##  6     0 2012-10-02       25
##  7     0 2012-10-02       30
##  8     0 2012-10-02       35
##  9     0 2012-10-02       40
## 10     0 2012-10-02       45
## # ... with 15,254 more rows
```

The average steps by interval (for all days) was calculated as follows


```r
steps_by_interval <- summarise(activity_w_intervals, Avrg.Steps = mean(steps))

print(steps_by_interval)
```

```
## # A tibble: 288 x 2
##    interval Avrg.Steps
##      <fctr>      <dbl>
##  1        0  1.7169811
##  2        5  0.3396226
##  3       10  0.1320755
##  4       15  0.1509434
##  5       20  0.0754717
##  6       25  2.0943396
##  7       30  0.5283019
##  8       35  0.8679245
##  9       40  0.0000000
## 10       45  1.4716981
## # ... with 278 more rows
```
…
When comparing the histograms, it could be noticed that **the count is increased while filling the `NA`s with new data**, as expected because now there is no omited rows. Nevertheless, **the behavior of the variable is still very similar**, because the mean values that filled the `NA`s are representatives of the tendency of the values taken by the `steps` variable for each 5-minute interval. 

### Evaluating differences between activity patterns between weekdays and weekends (*Fourth task*)

A new factor variable `is.weekday` was created to differenciate between weekends and weekdays in the dataset with the final objective of making comparissons between these conditions


```r
data_filled_NA
```

```
## # A tibble: 17,568 x 4
##        steps       date interval Avrg.Steps
##        <dbl>     <date>   <fctr>      <dbl>
##  1 1.7169811 2012-10-01        0  1.7169811
##  2 0.3396226 2012-10-01        5  0.3396226
##  3 0.1320755 2012-10-01       10  0.1320755
##  4 0.1509434 2012-10-01       15  0.1509434
##  5 0.0754717 2012-10-01       20  0.0754717
##  6 2.0943396 2012-10-01       25  2.0943396
##  7 0.5283019 2012-10-01       30  0.5283019
##  8 0.8679245 2012-10-01       35  0.8679245
##  9 0.0000000 2012-10-01       40  0.0000000
## 10 1.4716981 2012-10-01       45  1.4716981
## # ... with 17,558 more rows
```
…
